<?xml version="1.0" encoding="utf-8"?>
<!-- Generator: Adobe Illustrator 22.1.0, SVG Export Plug-In . SVG Version: 6.00 Build 0)  -->
<svg version="1.1" id="Ebene_1" xmlns="http://www.w3.org/2000/svg" xmlns:xlink="http://www.w3.org/1999/xlink" x="0px" y="0px"
	 viewBox="0 0 128 128" style="enable-background:new 0 0 128 128;" xml:space="preserve">
<g>
	<path d="M74.9,25.1c2.8,0,5-2.2,5-5V9.8c0-2.8-2.2-5-5-5c-2.8,0-5,2.2-5,5v10.3C69.9,22.9,72.1,25.1,74.9,25.1z"/>
	<path d="M123,51.4h-10.3c-2.8,0-5,2.2-5,5c0,2.7,2.2,5,5,5H123c2.8,0,5-2.2,5-5C128,53.6,125.8,51.4,123,51.4z"/>
	<path d="M106.1,79.4c-0.9-0.9-2.2-1.5-3.5-1.5c-1.3,0-2.6,0.5-3.5,1.5c-1.9,1.9-2,5.1,0,7.1l7.3,7.3c0.9,1,2.2,1.5,3.5,1.5
		c1.3,0,2.6-0.5,3.5-1.5c0.9-0.9,1.5-2.2,1.5-3.5c0-1.3-0.5-2.6-1.5-3.5L106.1,79.4z"/>
	<path d="M44.7,34.4c0.9,0.9,2.2,1.5,3.5,1.5c1.3,0,2.6-0.5,3.5-1.5c1.9-1.9,1.9-5.1,0-7.1L44.5,20c-0.9-0.9-2.2-1.5-3.5-1.5
		c-1.3,0-2.6,0.5-3.5,1.5c-1.9,2-1.9,5.1,0,7.1L44.7,34.4z"/>
	<path d="M101.5,35.5c1.3,0,2.6-0.5,3.5-1.5l7.2-7.3c1-0.9,1.5-2.2,1.5-3.5c0-1.3-0.5-2.6-1.5-3.5c-1-0.9-2.2-1.5-3.5-1.5
		c-1.3,0-2.6,0.5-3.6,1.5L98,27c-0.9,0.9-1.5,2.2-1.5,3.5c0,1.4,0.5,2.6,1.5,3.5C98.9,35,100.2,35.5,101.5,35.5z"/>
	<path d="M104.1,57.9c0-16.1-13.1-29.2-29.2-29.2c-12.8,0-24,8.2-27.9,20.5c0,0.1-0.1,0.3-0.1,0.4c-0.8-0.1-1.7-0.2-2.5-0.2
		c-12.1,0-22.8,7.4-26.2,18.1l-0.1,0.2l-0.2,0C7.6,70,0,79.2,0,89.9c0,11.5,8.6,21.1,20,22.4l0.2,0l0.1,0.1
		c3.9,6.6,11.1,10.7,18.7,10.7c6.1,0,12-2.6,16.1-7.2l0.2-0.2l0.2,0.1c3.6,1.5,7.5,2.3,11.5,2.3c16.6,0,30-13.5,30-30
		c0-3.1-0.6-6.4-1.7-9.6C101,73,104.1,65.7,104.1,57.9z M61.7,68.6l2.1-0.3c1.2-0.2,2.2-0.3,3.1-0.3c11.1,0,20.2,9,20.2,20.1
		c0,5.4-2.1,10.4-5.9,14.2c-3.8,3.8-8.9,5.9-14.3,5.9c-3.7,0-7.4-1.1-10.6-3.1l-3.1-2c-0.3-0.2-0.8-0.3-1.2-0.2
		c-0.4,0.1-0.7,0.4-0.9,0.7l-1.7,3.2c-2.1,3.8-6.1,6.2-10.4,6.2c-4.9,0-9.2-3-11-7.6c0-0.1-0.1-0.1-0.1-0.2l-1.3-2.3
		c-0.3-0.5-0.7-0.7-1.3-0.7c0,0,0,0,0,0l-2.6,0.1c-7,0-12.8-5.7-12.8-12.7c0-6.9,5.6-12.6,12.5-12.7l3-0.1c0.7,0,1.3-0.6,1.4-1.3
		l0.4-3c0.9-7.7,8.4-13.5,17.2-13.5c5.9,0,11.4,2.6,14.6,7l1.2,1.7C60.6,68.5,61.1,68.7,61.7,68.6z M66.8,58.2c-0.5,0-1,0-1.5,0
		l-0.2,0L65,58.1c-2.4-2.5-5.3-4.5-8.6-6c2.5-8.1,10-13.6,18.5-13.6c10.7,0,19.4,8.7,19.4,19.4c0,4.2-1.4,8.3-4,11.7
		C84.6,62.4,76,58.2,66.8,58.2z"/>
</g>
</svg>
